graph G {
	server [label="Paneles"];
	panel1 [label="Izquierdo", shape=box];
	panel2 [label="Central", shape=box];
	panel3 [label="Derecho", shape=box];

	contenido1 [label="Funciones de administración"];
	contenido2 [label="Contenidos del curso"];
	contenido3 [label="Novedades, eventos, etc."];

  	server -- panel1;
	server -- panel2;
	server -- panel3;

	panel1 -- contenido1;
	panel2 -- contenido2;
	panel3 -- contenido3;
}
